@relation soybean-small-mod
@attribute A0 {'0','1','2','3','4','5','6'}
@attribute A1 {'0','1'}
@attribute A2 {'0','1','2'}
@attribute A3 {'0','1','2'}
@attribute A4 {'0','1'}
@attribute A5 {'0','1','2','3'}
@attribute A6 {'0','1','2','3'}
@attribute A7 {'0','1','2'}
@attribute A8 {'0','1'}
@attribute A9 {'0','1','2'}
@attribute A10 {'0','1'}
@attribute A11 {'0','1'}
@attribute A12 {'0','1','2','3'}
@attribute A13 {'0','1','2','3'}
@attribute A14 {'0','1'}
@attribute A15 {'0','1'}
@attribute A16 {'0','1'}
@attribute A17 {'0','1','2'}
@attribute A18 {'0','1'}
@attribute A19 {'0','1','2','3'}
@attribute A20 {'0','1'}
@attribute Class {'0','1','2','3'}
@data
'4','0','2','1','1','1','0','1','0','2','1','0','3','1','1','1','0','0','0','0','0','0'
'5','0','2','1','0','3','1','1','1','2','1','1','3','0','1','1','0','0','0','0','0','0'
'3','0','2','1','0','2','0','2','1','1','1','0','3','0','1','1','0','0','0','0','0','0'
'6','0','2','1','0','1','1','1','0','0','1','1','3','1','1','1','0','0','0','0','0','0'
'4','0','2','1','0','3','0','2','0','2','1','0','3','1','1','1','0','0','0','0','0','0'
'5','0','2','1','0','2','0','1','1','0','1','1','3','1','1','1','0','0','0','0','0','0'
'3','0','2','1','0','2','1','1','0','1','1','1','3','0','1','1','0','0','0','0','0','0'
'3','0','2','1','0','1','0','2','1','2','1','0','3','0','1','1','0','0','0','0','0','0'
'6','0','2','1','0','3','0','1','1','1','1','0','3','1','1','1','0','0','0','0','0','0'
'6','0','2','1','0','1','0','1','0','2','1','0','3','1','1','1','0','0','0','0','0','0'
'6','0','0','2','1','0','2','1','0','0','1','1','0','3','0','0','0','2','1','0','0','1'
'4','0','0','1','0','2','3','1','1','1','1','0','0','3','0','0','0','2','1','0','0','1'
'5','0','0','2','0','3','2','1','0','2','1','0','0','3','0','0','0','2','1','0','0','1'
'6','0','0','1','1','3','3','1','1','0','1','0','0','3','0','0','0','2','1','0','0','1'
'3','0','0','2','1','0','2','1','0','1','1','0','0','3','0','0','0','2','1','0','0','1'
'4','0','0','1','1','1','3','1','1','1','1','1','0','3','0','0','0','2','1','0','0','1'
'3','0','0','1','0','1','2','1','0','0','1','0','0','3','0','0','0','2','1','0','0','1'
'5','0','0','2','1','2','2','1','0','2','1','1','0','3','0','0','0','2','1','0','0','1'
'6','0','0','2','0','1','3','1','1','0','1','0','0','3','0','0','0','2','1','0','0','1'
'5','0','0','2','1','3','3','1','1','2','1','0','0','3','0','0','0','2','1','0','0','1'
'0','1','2','0','0','1','1','1','1','1','0','0','1','1','0','1','1','0','0','3','0','2'
'2','1','2','0','0','3','1','2','0','1','0','0','1','1','0','1','0','0','0','3','0','2'
'2','1','2','0','0','2','1','1','0','2','0','0','1','1','0','1','1','0','0','3','0','2'
'0','1','2','0','0','0','1','1','1','2','0','0','1','1','0','1','0','0','0','3','0','2'
'0','1','2','0','0','2','1','1','1','1','0','0','1','1','0','1','0','0','0','3','0','2'
'4','0','2','0','1','0','1','2','0','2','1','1','1','1','0','1','1','0','0','3','0','2'
'2','1','2','0','0','3','1','2','0','2','0','0','1','1','0','1','1','0','0','3','0','2'
'0','1','2','0','0','0','1','1','0','1','0','0','1','1','0','1','0','0','0','3','1','2'
'3','0','2','0','1','3','1','2','0','1','0','1','1','1','0','1','1','0','0','3','0','2'
'0','1','2','0','0','1','1','2','1','2','0','0','1','1','0','1','0','0','0','3','0','2'
'2','1','2','1','1','3','1','2','1','2','1','0','2','2','0','1','0','0','0','3','1','3'
'0','1','1','1','0','1','1','1','0','0','1','0','1','2','0','0','0','0','0','3','1','3'
'3','1','2','0','0','1','1','2','1','0','1','0','2','2','0','0','0','0','0','3','1','3'
'2','1','2','1','1','1','1','2','0','2','1','0','1','2','0','1','0','0','0','3','1','3'
'1','1','2','0','0','3','1','1','1','2','1','0','2','2','0','0','0','0','0','3','1','3'
'1','1','2','1','0','0','1','2','1','1','1','0','2','2','0','0','0','0','0','3','1','3'
'0','1','2','1','0','3','1','1','0','0','1','0','1','2','0','0','0','0','0','3','1','3'
'2','1','2','0','0','1','1','2','0','0','1','0','1','2','0','0','0','0','0','3','1','3'
'3','1','2','0','0','2','1','2','1','1','1','0','2','2','0','0','0','0','0','3','1','3'
'3','1','1','0','0','2','1','2','1','2','1','0','2','2','0','0','0','0','0','3','1','3'
'0','1','2','1','1','1','1','1','0','0','1','0','1','2','0','1','0','0','0','3','1','3'
'1','1','2','1','1','3','1','2','0','1','1','1','1','2','0','1','0','0','0','3','1','3'
'1','1','2','0','0','0','1','2','1','0','1','0','2','2','0','0','0','0','0','3','1','3'
'1','1','2','1','1','2','3','1','1','1','1','0','2','2','0','1','0','0','0','3','1','3'
'2','1','1','0','0','3','1','2','0','2','1','0','1','2','0','0','0','0','0','3','1','3'
'0','1','1','1','1','2','1','2','1','0','1','1','2','2','0','1','0','0','0','3','1','3'
'0','1','2','1','0','3','1','1','0','2','1','0','1','2','0','0','0','0','0','3','1','3'
